{
    "name": "Igor Sukhinskii",
    "ssn": "010190-123A",
    "phone": "+358 00 000 0000",
    "address": "Straight outta Skinnarila",
    "symptoms": "Actually officially dying",
    "priority": "A"
}